{
  "settings": {
    "i18n": {
      "el": {
        "Add review" : "Υποβολή",
        "Write a short review for this item" : "Υποβάλετε αξιολόγηση",
        "Rating": "Βαθμός Αξιολόγησης",
        "Calculated total family income": "Υπολογιζόμενο συνολικό οικογενειακό εισόδημα",
        "Checking limit": "Όριο Ελέγχου",
        "Number of sibling students":"Αριθμός φοιτητών αδελφών",
        "The field 003 value of tax clearance document": "Κωδικός 003 από το εκκαθαριστικό"
      },
      "en": {
        "addReview" : "Add Review",
        "Rating": "Βαθμός Αξιολόγησης"
      }
    }
  },
    "components": [
      {
        "label": "Columns",
        "columns": [
          {
            "components": [
              {
                "label": "Write a short review for this item",
                "autoExpand": false,
                "showWordCount": true,
                "spellcheck": false,
                "tableView": true,
                "key": "reviewBody",
                "type": "textarea",
                "rows": 5,
                "input": true,
                "hideOnChildrenHidden": false
              }
            ],
            "width": 12
          },
          {
            "components": [
              {
                "label": "Calculated total family income",
                "mask": false,
                "labelPosition": "left-left",
                "labelMargin": 10,
                "spellcheck": true,
                "tableView": false,
                "delimiter": false,
                "requireDecimal": false,
                "inputFormat": "plain",
                "key": "calculatedTotalFamilyIncome",
                "type": "number",
                "input": true,
                "hideOnChildrenHidden": false
              },
              {
                "label": "Checking limit",
                "mask": false,
                "labelPosition": "left-left",
                "labelMargin": 10,
                "spellcheck": true,
                "tableView": false,
                "delimiter": false,
                "requireDecimal": false,
                "inputFormat": "plain",
                "key": "checkingLimit",
                "type": "number",
                "input": true,
                "hideOnChildrenHidden": false
              },
              {
                "label": "Number of sibling students",
                "mask": false,
                "labelPosition": "left-left",
                "labelMargin": 10,
                "spellcheck": true,
                "tableView": false,
                "delimiter": false,
                "requireDecimal": false,
                "inputFormat": "plain",
                "key": "noOfSiblingStudents",
                "type": "number",
                "input": true,
                "hideOnChildrenHidden": false
              },
              {
                "label": "The field 003 value of tax clearance document",
                "mask": false,
                "labelPosition": "left-left",
                "labelMargin": 10,
                "spellcheck": true,
                "tableView": false,
                "delimiter": false,
                "requireDecimal": false,
                "inputFormat": "plain",
                "key": "codeTaxValue",
                "type": "number",
                "input": true,
                "hideOnChildrenHidden": false
              },
              {
                "label": "Rating",
                "mask": false,
                "labelPosition": "left-left",
                "labelMargin": 10,
                "spellcheck": true,
                "tableView": false,
                "delimiter": false,
                "requireDecimal": false,
                "inputFormat": "plain",
                "key": "reviewRating",
                "type": "number",
                "input": true,
                "hideOnChildrenHidden": false
              }
            ],
            "width": 12
          }
        ],
        "key": "columns",
        "type": "columns",
        "input": false,
        "tableView": false
      },
      {
        "label": "Add review",
        "customClass": "d-inline-block text-lowercase",
        "showValidations": false,
        "tableView": false,
        "action": "event",
        "key": "addReview",
        "type": "button",
        "input": true,
        "hideOnChildrenHidden": false
      },
      {
        "label": "Cancel",
        "action": "event",
        "customClass": "d-inline-block text-lowercase",
        "showValidations": false,
        "theme": "secondary",
        "tableView": false,
        "key": "cancel",
        "type": "button",
        "input": true,
        "hideOnChildrenHidden": false
      }
    ]
  }
  