{
  "components": [
    {
      "label": "Columns",
      "columns": [
        {
          "components": [
            {
              "label": "Requests.RequestNumber",
              "spellcheck": true,
              "tableView": true,
              "validate": {
                "unique": false,
                "multiple": false
              },
              "key": "requestNumber",
              "type": "textfield",
              "input": true,
              "hideOnChildrenHidden": false
            }
          ],
          "width": 3,
          "offset": 0,
          "push": 0,
          "pull": 0
        },
        {
          "components": [
            {
              "label": "Students.StudentUniqueIdentifier",
              "spellcheck": true,
              "tableView": true,
              "validate": {
                "unique": false,
                "multiple": false
              },
              "key": "studentUniqueIdentifier",
              "type": "textfield",
              "input": true,
              "hideOnChildrenHidden": false
            }
          ],
          "width": 3,
          "offset": 0,
          "push": 0,
          "pull": 0
        },
        {
          "components": [
            {
              "label": "Students.FullName",
              "spellcheck": true,
              "tableView": true,
              "validate": {
                "unique": false,
                "multiple": false
              },
              "key": "studentName",
              "type": "textfield",
              "input": true,
              "hideOnChildrenHidden": false
            }
          ],
          "width": 6,
          "offset": 0,
          "push": 0,
          "pull": 0
        },
        {
          "components": [
            {
              "label": "Requests.ActionStatusTitle",
              "widget": "choicesjs",
              "dataSrc": "url",
              "data": {
                "url": "ActionStatusTypes",
                "headers": []
              },
              "selectThreshold": 0.3,
              "validate": {
                "unique": false,
                "multiple": false
              },
              "template": "{{ item.alternateName }}",
              "key": "actionStatus",
              "valueProperty": "alternateName",
              "selectValues": "value",
              "type": "select",
              "input": true,
              "hideOnChildrenHidden": false,
              "disableLimit": false,
              "lazyLoad": false
            }
          ],
          "width": 3,
          "offset": 0,
          "push": 0,
          "pull": 0
        },
        {
          "components": [
            {
              "label": "UniversisDiningModule.EffectiveStatus",
              "widget": "choicesjs",
              "dataSrc": "url",
              "data": {
                "url": "DiningRequestEffectiveStatusTypes",
                "headers": []
              },
              "selectThreshold": 0.3,
              "validate": {
                "unique": false,
                "multiple": false
              },
              "template": "{{ item.locale.name }}",
              "key": "effectiveStatusState",
              "valueProperty": "alternateName",
              "selectValues": "value",
              "type": "select",
              "input": true,
              "hideOnChildrenHidden": false,
              "disableLimit": false,
              "lazyLoad": false
            }
          ],
          "width": 3,
          "offset": 0,
          "push": 0,
          "pull": 0
        },
        {
          "components": [
            {
              "label": "Requests.StudentStatus",
              "tableView": true,
              "validate": {
                "unique": false,
                "multiple": false
              },
              "key": "studentActiveStatus",
              "input": true,
              "searchEnabled": false,
              "hideOnChildrenHidden": false,
              "widget": "choicesjs",
              "type": "select",
              "selectThreshold": 0.3,
              "valueProperty": "value",
              "selectValues": "value",
              "data": {
                  "values": [                    
                      {
                        "value": 1,
                        "label": "StudentStatuses.active"
                      },
                      {
                        "value": -1,
                        "label": "StudentStatuses.NotActive"
                      }
                  ]
              }
            }
          ],
          "width": 3,
          "offset": 0,
          "push": 0,
          "pull": 0
        },
        {
          "components" : [  
            {
              "input": true,
              "label": "Forms.DiningRequest.LivePermanentlyInSameLocationWithInstitution",
              "key": "livePermanentlyInSameLocationWithInstitution",
              "widget": "choicesjs",
              "type": "select",
              "data": {
                  "values": [                    
                      {
                      "value": "true",
                      "label": "UniversisDiningModule.Yes"
                      },
                      {
                      "value": "false",
                      "label": "UniversisDiningModule.No"
                      }
                  ]
              },
              "dataType" : "boolean"
            }   
          ],
          "width": 3,
          "offset": 0,
          "push": 0,
          "pull": 0
        },
        {
          "components": [
            {
            "label": "Requests.RequestedAfter",
              "tableView": false,
              "enableTime": false,
              "enableMinDateInput": false,
              "format": "dd-MM-yyyy",
              "datePicker": {
                  "disableWeekends": false,
                  "disableWeekdays": false
              },
              "enableMaxDateInput": false,
              "key": "minDate",
              "type": "datetime",
              "input": true,
              "widget": {
                  "type": "calendar",
                  "displayInTimezone": "viewer",
                  "locale": "en",
                  "useLocaleSettings": false,
                  "allowInput": true,
                  "mode": "single",
                  "enableTime": true,
                  "noCalendar": false,
                  "format": "yyyy-MM-dd",
                  "hourIncrement": 1,
                  "minuteIncrement": 1,
                  "time_24hr": true,
                  "disableWeekends": false,
                  "disableWeekdays": false
              }
            }
          ],
          "width": 3,
          "offset": 0,
          "push": 0,
          "pull": 0
        },
        {
          "components": [
            {
              "label": "Requests.RequestedBefore",
              "tableView": false,
              "enableMinDateInput": false,
              "enableTime": false,
              "format": "dd-MM-yyyy",
              "datePicker": {
                  "disableWeekends": false,
                  "disableWeekdays": false
              },
              "enableMaxDateInput": false,
              "key": "maxDate",
              "type": "datetime",
              "input": true,
              "widget": {
                  "type": "calendar",
                  "displayInTimezone": "viewer",
                  "useLocaleSettings": true,
                  "allowInput": true,
                  "mode": "single",
                  "enableTime": true,
                  "noCalendar": false,
                  "time_24hr": false,
                  "disableWeekends": false,
                  "disableWeekdays": false
              }
            }           
          ],
          "width": 3,
          "offset": 0,
          "push": 0,
          "pull": 0
        },
        {
          "components" : [  
            {
              "input": true,
              "label": "Forms.DiningRequest.LessThan25yrs",
              "key": "lessThan25yrs",
              "widget": "choicesjs",
              "type": "select",
              "data": {
                  "values": [                    
                      {
                      "value": "true",
                      "label": "UniversisDiningModule.Yes"
                      },
                      {
                      "value": "false",
                      "label": "UniversisDiningModule.No"
                      }
                  ]
              },
              "dataType" : "boolean"
            }   
          ],
          "width": 3,
          "offset": 0,
          "push": 0,
          "pull": 0
        },
        {
          "components" : [  
            {
              "input": true,
              "label": "Forms.DiningRequest.ForeignScholarStudent",
              "key": "foreignScholarStudent",
              "widget": "choicesjs",
              "type": "select",
              "data": {
                  "values": [                    
                      {
                      "value": "true",
                      "label": "UniversisDiningModule.Yes"
                      },
                      {
                      "value": "false",
                      "label": "UniversisDiningModule.No"
                      }
                  ]
              },
              "dataType" : "boolean"
            }   
          ],
          "width": 3,
          "offset": 0,
          "push": 0,
          "pull": 0
        },
        {
          "components" : [  
            {
              "input": true,
              "label": "Forms.DiningRequest.Prerequisites",
              "key": "diningPrerequisites",
              "widget": "choicesjs",
              "type": "select",
              "data": {
                  "values": [                    
                      {
                      "value": "true",
                      "label": "UniversisDiningModule.Yes"
                      },
                      {
                      "value": "false",
                      "label": "UniversisDiningModule.No"
                      }
                  ]
              },
              "dataType" : "boolean"
            }   
          ],
          "width": 3,
          "offset": 0,
          "push": 0,
          "pull": 0
        },
        {
          "components" : [  
            {
              "input": true,
              "label": "Forms.DiningRequest.Unemployment",
              "key": "unemployment",
              "widget": "choicesjs",
              "type": "select",
              "data": {
                  "values": [                    
                      {
                      "value": "true",
                      "label": "UniversisDiningModule.Yes"
                      },
                      {
                      "value": "false",
                      "label": "UniversisDiningModule.No"
                      }
                  ]
              },
              "dataType" : "boolean"
            }   
          ],
          "width": 3,
          "offset": 0,
          "push": 0,
          "pull": 0
        },
        {
          "components": [
            {
              "label": "Forms.DiningRequest.StudentMaritalStatusTitle",
              "widget": "choicesjs",
              "dataSrc": "url",
              "data": {
                "url": "FamilyStatuses?$orderby=name",
                "headers": []
              },
              "filter":"$filter=(alternateName eq 'single') or (alternateName eq 'married')",
              "validate": {
                "unique": false,
                "multiple": false
              },
              "template": "{{ item.alternateName }}",
              "key": "studentMaritalStatus",
              "valueProperty": "alternateName",
              "selectValues": "value",
              "type": "select",
              "input": true,
              "hideOnChildrenHidden": false,
              "disableLimit": false,
              "lazyLoad": false
            }
          ],
          "width": 3,
          "offset": 0,
          "push": 0,
          "pull": 0
        },
        {
          "components": [
            {
              "label": "UniversisDiningModule.Agent.claim",
              "widget": "choicesjs",
              "dataSrc": "url",
              "data": {
                "url": "DiningRequestActions?$select=agent/name as name&$groupby=agent/name&$orderby=agent/name&$filter=agent ne null",
                "headers": []
              },
              "selectThreshold": 0.3,
              "validate": {
                "unique": false,
                "multiple": false
              },
              "template": "{{ item.name }}",
              "key": "agent",
              "valueProperty": "name",
              "selectValues": "value",
              "type": "select",
              "input": true,
              "hideOnChildrenHidden": false,
              "disableLimit": false,
              "lazyLoad": true
            }
          ],
          "width": 3,
          "offset": 0,
          "push": 0,
          "pull": 0
        },
        {
          "components": [
            {
              "label": "Students.StudentDepartment",
              "labelPosition": "top",
              "widget": "choicesjs",
              "key": "studentDepartment",
              "dataSrc": "url",
              "data": {
                "url": "LocalDepartments?$top=-1&$skip=0&$orderby=name",
                "headers": []
              },
              "template": " {{item.id}} - {{item.name}} ",
              "selectValues": "value",
              "valueProperty": "id",
              "type": "select",
              "input": true,
              "disabled": false,
              "lazyLoad": false,
              "searchEnabled": true
            }
          ],
          "width": 6,
          "offset": 0,
          "push": 0,
          "pull": 0
        },
                {
          "components": [
            {
              "label": "UniversisDiningModule.EffectiveStatusRating",
              "tableView": true,
              "validate": {
                "unique": false,
                "multiple": false
              },
              "key": "effectiveStatusRating",
              "input": true,
              "searchEnabled": false,
              "hideOnChildrenHidden": false,
              "widget": "choicesjs",
              "type": "select",
              "selectThreshold": 0.3,
              "valueProperty": "value",
              "selectValues": "value",
              "data": {
                  "values": [                    
                      {
                        "value": 1,
                        "label": "UniversisDiningModule.Yes"
                      },
                      {
                        "value": -1,
                        "label": "UniversisDiningModule.No"
                      }
                  ]
              }
            }
          ],
          "width": 3,
          "offset": 0,
          "push": 0,
          "pull": 0
        },
        {
          "components": [
            {
              "label": "Requests.Claimed",
              "tableView": true,
              "validate": {
                "unique": false,
                "multiple": false
              },
              "key": "requestIsClaimed",
              "input": true,
              "searchEnabled": false,
              "hideOnChildrenHidden": false,
              "widget": "choicesjs",
              "type": "select",
              "selectThreshold": 0.3,
              "valueProperty": "value",
              "selectValues": "value",
              "data": {
                  "values": [                    
                      {
                        "value": 1,
                        "label": "UniversisDiningModule.Yes"
                      },
                      {
                        "value": -1,
                        "label": "UniversisDiningModule.No"
                      }
                  ]
              }
            }
          ],
          "width": 3,
          "offset": 0,
          "push": 0,
          "pull": 0
        },
        {
          "components": [
            {
              "label": "Category",
              "widget": "choicesjs",
              "dataSrc": "url",
              "data": {
                "url": "DiningRequestCategories",
                "headers": []
              },
              "validate": {
                "unique": false,
                "multiple": false
              },
              "template": "{{ item.name }}",
              "key": "category",
              "valueProperty": "alternateName",
              "selectValues": "value",
              "type": "select",
              "input": true,
              "hideOnChildrenHidden": false,
              "disableLimit": false,
              "lazyLoad": false
            }
          ],
          "width": 6,
          "offset": 0,
          "push": 0,
          "pull": 0
        }, 
        {
          "components": [
            {
              "label": "Requests.SemesterLowerOrEqual",
              "spellcheck": true,
              "tableView": true,
              "validate": {
                "unique": false,
                "multiple": false
              },
              "key": "semesterLowerOrEqual",
              "type": "number",
              "input": true,
              "hideOnChildrenHidden": false
            }
          ],
          "width": 3,
          "offset": 0,
          "push": 0,
          "pull": 0
        }
      ],
      "tableView": false,
      "key": "columns1",
      "type": "columns",
      "input": false,
      "path": "columns1"
    }
  ]
}
